…
``` r
weather_df %>% 
  group_by(name, month)
```

    ## # A tibble: 2,190 × 7
    ## # Groups:   name, month [72]
    ##    name           id          date        prcp  tmax  tmin month     
    ##    <chr>          <chr>       <date>     <dbl> <dbl> <dbl> <date>    
    ##  1 CentralPark_NY USW00094728 2021-01-01   157   4.4   0.6 2021-01-01
    ##  2 CentralPark_NY USW00094728 2021-01-02    13  10.6   2.2 2021-01-01
    ##  3 CentralPark_NY USW00094728 2021-01-03    56   3.3   1.1 2021-01-01
    ##  4 CentralPark_NY USW00094728 2021-01-04     5   6.1   1.7 2021-01-01
    ##  5 CentralPark_NY USW00094728 2021-01-05     0   5.6   2.2 2021-01-01
    ##  6 CentralPark_NY USW00094728 2021-01-06     0   5     1.1 2021-01-01
    ##  7 CentralPark_NY USW00094728 2021-01-07     0   5    -1   2021-01-01
    ##  8 CentralPark_NY USW00094728 2021-01-08     0   2.8  -2.7 2021-01-01
    ##  9 CentralPark_NY USW00094728 2021-01-09     0   2.8  -4.3 2021-01-01
    ## 10 CentralPark_NY USW00094728 2021-01-10     0   5    -1.6 2021-01-01
    ## # ℹ 2,180 more rows
…
summarize()

``` r
weather_df |>
  group_by(month) |>
  summarize(
    mean_tmax = mean(tmax, na.rm = TRUE),
    mean_prec = mean(prcp, na.rm = TRUE),
    median_tmax = median(tmax, na.rm = TRUE),
    sd_prcp = sd(prcp, na.rm = TRUE)
    ) 
```

    ## # A tibble: 24 × 5
    ##    month      mean_tmax mean_prec median_tmax sd_prcp
    ##    <date>         <dbl>     <dbl>       <dbl>   <dbl>
    ##  1 2021-01-01     10.9       39.5         5     113. 
    ##  2 2021-02-01      9.82      42.6         2.8    83.4
    ##  3 2021-03-01     13.7       55.5        12.5   107. 
    ##  4 2021-04-01     16.8       14.7        18.0    37.0
    ##  5 2021-05-01     19.6       17.3        22.2    48.1
    ##  6 2021-06-01     24.3       14.1        28.3    38.6
    ##  7 2021-07-01     25.2       30.7        28.3    96.6
    ##  8 2021-08-01     25.2       30.6        28.3   141. 
    ##  9 2021-09-01     22.4       35.4        24.4   200. 
    ## 10 2021-10-01     18.2       36.0        20.6   112. 
    ## # ℹ 14 more rows
…
